"N","min(T)","q1(T)","med(T)","q3(T)","max(T)","avg(T)","std(T)","min(D (0))","q1(D (0))","med(D (0))","q3(D (0))","max(D (0))","avg(D (0))","std(D (0))","min(D (1))","q1(D (1))","med(D (1))","q3(D (1))","max(D (1))","avg(D (1))","std(D (1))","min(D (2))","q1(D (2))","med(D (2))","q3(D (2))","max(D (2))","avg(D (2))","std(D (2))","min(D (Magnitude))","q1(D (Magnitude))","med(D (Magnitude))","q3(D (Magnitude))","max(D (Magnitude))","avg(D (Magnitude))","std(D (Magnitude))","min(vtkOriginalCellIds)","q1(vtkOriginalCellIds)","med(vtkOriginalCellIds)","q3(vtkOriginalCellIds)","max(vtkOriginalCellIds)","avg(vtkOriginalCellIds)","std(vtkOriginalCellIds)","vtkValidPointMask","Time"
1,673.15,673.15,673.15,673.15,673.15,673.15,0,0,0,0,0,0,0,0,0,0,0,0,0,0,0,0,0,0,0,0,0,0,0,0,0,0,0,0,0,0,0,0,0,0,0,0,1,0
1,773.15,773.15,773.15,773.15,773.15,773.15,0,2.41819e-06,2.41819e-06,2.41819e-06,2.41819e-06,2.41819e-06,2.41819e-06,0,1.20909e-06,1.20909e-06,1.20909e-06,1.20909e-06,1.20909e-06,1.20909e-06,0,1.2097e-06,1.2097e-06,1.2097e-06,1.2097e-06,1.2097e-06,1.2097e-06,0,2.961911e-06,2.961911e-06,2.961911e-06,2.961911e-06,2.961911e-06,2.961911e-06,0,0,0,0,0,0,0.00241238,0,1,5
1,873.15,873.15,873.15,873.15,873.15,873.15,0,2.96677e-06,2.96677e-06,2.96677e-06,2.96677e-06,2.96677e-06,2.96677e-06,0,1.48339e-06,1.48339e-06,1.48339e-06,1.48339e-06,1.48339e-06,1.48339e-06,0,1.48413e-06,1.48413e-06,1.48413e-06,1.48413e-06,1.48413e-06,1.48413e-06,0,3.633842e-06,3.633842e-06,3.633842e-06,3.633842e-06,3.633842e-06,3.633842e-06,0,0,0,0,0,0,0.00296542,0,1,10
1,973.15,973.15,973.15,973.15,973.15,973.15,0,3.53556e-06,3.53556e-06,3.53556e-06,3.53556e-06,3.53556e-06,3.53556e-06,0,1.76778e-06,1.76778e-06,1.76778e-06,1.76778e-06,1.76778e-06,1.76778e-06,0,1.76866e-06,1.76866e-06,1.76866e-06,1.76866e-06,1.76866e-06,1.76866e-06,0,4.330518e-06,4.330518e-06,4.330518e-06,4.330518e-06,4.330518e-06,4.330518e-06,0,94702578972928,4120065187265342976,4294967296,94702453605632,4120065187265342976,0.00353419,0,1,15
1,1073.15,1073.15,1073.15,1073.15,1073.15,1073.15,0,4.12008e-06,4.12008e-06,4.12008e-06,4.12008e-06,4.12008e-06,4.12008e-06,0,2.06004e-06,2.06004e-06,2.06004e-06,2.06004e-06,2.06004e-06,2.06004e-06,0,2.06107e-06,2.06107e-06,2.06107e-06,2.06107e-06,2.06107e-06,2.06107e-06,0,5.046468e-06,5.046468e-06,5.046468e-06,5.046468e-06,5.046468e-06,5.046468e-06,0,808330,808342,808346,808310,808281,0.00411866,0,1,20
1,1173.15,1173.15,1173.15,1173.15,1173.15,1173.15,0,4.7203e-06,4.7203e-06,4.7203e-06,4.7203e-06,4.7203e-06,4.7203e-06,0,2.36015e-06,2.36015e-06,2.36015e-06,2.36015e-06,2.36015e-06,2.36015e-06,0,2.36133e-06,2.36133e-06,2.36133e-06,2.36133e-06,2.36133e-06,2.36133e-06,0,5.781645e-06,5.781645e-06,5.781645e-06,5.781645e-06,5.781645e-06,5.781645e-06,0,0,0,0,0,0,0.00471885,0,1,25
1,1273.15,1273.15,1273.15,1273.15,1273.15,1273.15,0,5.33625e-06,5.33625e-06,5.33625e-06,5.33625e-06,5.33625e-06,5.33625e-06,0,2.66812e-06,2.66812e-06,2.66812e-06,2.66812e-06,2.66812e-06,2.66812e-06,0,2.66946e-06,2.66946e-06,2.66946e-06,2.66946e-06,2.66946e-06,2.66946e-06,0,6.536088e-06,6.536088e-06,6.536088e-06,6.536088e-06,6.536088e-06,6.536088e-06,0,0,0,0,0,0,0.00533476,0,1,30
1,1373.15,1373.15,1373.15,1373.15,1373.15,1373.15,0,5.9679e-06,5.9679e-06,5.9679e-06,5.9679e-06,5.9679e-06,5.9679e-06,0,2.98395e-06,2.98395e-06,2.98395e-06,2.98395e-06,2.98395e-06,2.98395e-06,0,2.98544e-06,2.98544e-06,2.98544e-06,2.98544e-06,2.98544e-06,2.98544e-06,0,7.309763e-06,7.309763e-06,7.309763e-06,7.309763e-06,7.309763e-06,7.309763e-06,0,0,0,0,0,0,0.00596638,0,1,35
1,1473.15,1473.15,1473.15,1473.15,1473.15,1473.15,0,6.61528e-06,6.61528e-06,6.61528e-06,6.61528e-06,6.61528e-06,6.61528e-06,0,3.30764e-06,3.30764e-06,3.30764e-06,3.30764e-06,3.30764e-06,3.30764e-06,0,3.30929e-06,3.30929e-06,3.30929e-06,3.30929e-06,3.30929e-06,3.30929e-06,0,8.102704e-06,8.102704e-06,8.102704e-06,8.102704e-06,8.102704e-06,8.102704e-06,0,0,0,0,0,0,0.00661371,0,1,40
1,1573.15,1573.15,1573.15,1573.15,1573.15,1573.15,0,7.27836e-06,7.27836e-06,7.27836e-06,7.27836e-06,7.27836e-06,7.27836e-06,0,3.63918e-06,3.63918e-06,3.63918e-06,3.63918e-06,3.63918e-06,3.63918e-06,0,3.641e-06,3.641e-06,3.641e-06,3.641e-06,3.641e-06,3.641e-06,0,8.914877e-06,8.914877e-06,8.914877e-06,8.914877e-06,8.914877e-06,8.914877e-06,0,4294967296,4294967296,4294967296,4294967296,4294967296,0.00727676,0,1,45
1,1673.15,1673.15,1673.15,1673.15,1673.15,1673.15,0,7.95716e-06,7.95716e-06,7.95716e-06,7.95716e-06,7.95716e-06,7.95716e-06,0,3.97858e-06,3.97858e-06,3.97858e-06,3.97858e-06,3.97858e-06,3.97858e-06,0,3.98057e-06,3.98057e-06,3.98057e-06,3.98057e-06,3.98057e-06,3.98057e-06,0,9.746303e-06,9.746303e-06,9.746303e-06,9.746303e-06,9.746303e-06,9.746303e-06,0,0,0,0,0,0,0.00795552,0,1,50
