E,,T,fastFluence,rho,vtkValidPointMask,arc_length,Points:0,Points:1,Points:2
33153400000,33.1534,673.15,1E+025,1900,1,0,0,0.00000005,0.00000005
33176880000,33.17688,683.15,1E+025,1900,1,0.00000005,0.00000005,0.00000005,0.00000005
33200350000,33.20035,693.15,1E+025,1900,1,0.00000009999999,0.00000009999999,0.00000005,0.00000005
33247320000,33.24732,703.15,1E+025,1900,1,0.00000015,0.00000015,0.00000005,0.00000005
33294300000,33.2943,713.15,1E+025,1900,1,0.0000002,0.0000002,0.00000005,0.00000005
33341300000,33.3413,723.15,1E+025,1900,1,0.00000025,0.00000025,0.00000005,0.00000005
33388300000,33.3883,733.15,1E+025,1900,1,0.0000003,0.0000003,0.00000005,0.00000005
33435280000,33.43528,743.15,1E+025,1900,1,0.00000035,0.00000035,0.00000005,0.00000005
33482250000,33.48225,753.15,1E+025,1900,1,0.0000004,0.0000004,0.00000005,0.00000005
33529230000,33.52923,763.15,1E+025,1900,1,0.00000045,0.00000045,0.00000005,0.00000005
33576200000,33.5762,773.15,1E+025,1900,1,0.0000005,0.0000005,0.00000005,0.00000005
33623200000,33.6232,783.15,1E+025,1900,1,0.00000055,0.00000055,0.00000005,0.00000005
33670200000,33.6702,793.15,1E+025,1900,1,0.0000006,0.0000006,0.00000005,0.00000005
33717170000,33.71717,803.15,1E+025,1900,1,0.00000065,0.00000065,0.00000005,0.00000005
33764150000,33.76415,813.15,1E+025,1900,1,0.0000007,0.0000007,0.00000005,0.00000005
33811120000,33.81112,823.15,1E+025,1900,1,0.00000075,0.00000075,0.00000005,0.00000005
33858100000,33.8581,833.15,1E+025,1900,1,0.0000008,0.0000008,0.00000005,0.00000005
33905100000,33.9051,843.15,1E+025,1900,1,0.00000085,0.00000085,0.00000005,0.00000005
33952100000,33.9521,853.15,1E+025,1900,1,0.0000009,0.0000009,0.00000005,0.00000005
33999080000,33.99908,863.15,1E+025,1900,1,0.00000095,0.00000095,0.00000005,0.00000005
34046050000,34.04605,873.15,1E+025,1900,1,0.000001,0.000001,0.00000005,0.00000005
34093030000,34.09303,883.15,1E+025,1900,1,0.00000105,0.00000105,0.00000005,0.00000005
34140000000,34.14,893.15,1E+025,1900,1,0.0000011,0.0000011,0.00000005,0.00000005
34186980000,34.18698,903.15,1E+025,1900,1,0.00000115,0.00000115,0.00000005,0.00000005
34233950000,34.23395,913.15,1E+025,1900,1,0.0000012,0.0000012,0.00000005,0.00000005
34280930000,34.28093,923.15,1E+025,1900,1,0.00000125,0.00000125,0.00000005,0.00000005
34327900000,34.3279,933.15,1E+025,1900,1,0.0000013,0.0000013,0.00000005,0.00000005
34374900000,34.3749,943.15,1E+025,1900,1,0.00000135,0.00000135,0.00000005,0.00000005
34421900000,34.4219,953.15,1E+025,1900,1,0.0000014,0.0000014,0.00000005,0.00000005
34468870000,34.46887,963.15,1E+025,1900,1,0.00000145,0.00000145,0.00000005,0.00000005
34515850000,34.51585,973.15,1E+025,1900,1,0.0000015,0.0000015,0.00000005,0.00000005
34562820000,34.56282,983.15,1E+025,1900,1,0.00000155,0.00000155,0.00000005,0.00000005
34609800000,34.6098,993.15,1E+025,1900,1,0.0000016,0.0000016,0.00000005,0.00000005
34656800000,34.6568,1003.15,1E+025,1900,1,0.00000165,0.00000165,0.00000005,0.00000005
34703800000,34.7038,1013.15,1E+025,1900,1,0.0000017,0.0000017,0.00000005,0.00000005
34750770000,34.75077,1023.15,1E+025,1900,1,0.00000175,0.00000175,0.00000005,0.00000005
34797750000,34.79775,1033.15,1E+025,1900,1,0.0000018,0.0000018,0.00000005,0.00000005
34844720000,34.84472,1043.15,1E+025,1900,1,0.00000185,0.00000185,0.00000005,0.00000005
34891700000,34.8917,1053.15,1E+025,1900,1,0.0000019,0.0000019,0.00000005,0.00000005
34938700000,34.9387,1063.15,1E+025,1900,1,0.00000195,0.00000195,0.00000005,0.00000005
34985700000,34.9857,1073.15,1E+025,1900,1,0.000002,0.000002,0.00000005,0.00000005
35032670000,35.03267,1083.15,1E+025,1900,1,0.00000205,0.00000205,0.00000005,0.00000005
35079650000,35.07965,1093.15,1E+025,1900,1,0.0000021,0.0000021,0.00000005,0.00000005
35126620000,35.12662,1103.15,1E+025,1900,1,0.00000215,0.00000215,0.00000005,0.00000005
35173600000,35.1736,1113.15,1E+025,1900,1,0.0000022,0.0000022,0.00000005,0.00000005
35220570000,35.22057,1123.15,1E+025,1900,1,0.00000225,0.00000225,0.00000005,0.00000005
35267550000,35.26755,1133.15,1E+025,1900,1,0.0000023,0.0000023,0.00000005,0.00000005
35314520000,35.31452,1143.15,1E+025,1900,1,0.00000235,0.00000235,0.00000005,0.00000005
35361500000,35.3615,1153.15,1E+025,1900,1,0.0000024,0.0000024,0.00000005,0.00000005
35408500000,35.4085,1163.15,1E+025,1900,1,0.00000245,0.00000245,0.00000005,0.00000005
35455500000,35.4555,1173.15,1E+025,1900,1,0.0000025,0.0000025,0.00000005,0.00000005
35502470000,35.50247,1183.15,1E+025,1900,1,0.00000255,0.00000255,0.00000005,0.00000005
35549450000,35.54945,1193.15,1E+025,1900,1,0.0000026,0.0000026,0.00000005,0.00000005
35596420000,35.59642,1203.15,1E+025,1900,1,0.00000265,0.00000265,0.00000005,0.00000005
35643400000,35.6434,1213.15,1E+025,1900,1,0.0000027,0.0000027,0.00000005,0.00000005
35690400000,35.6904,1223.15,1E+025,1900,1,0.00000275,0.00000275,0.00000005,0.00000005
35737400000,35.7374,1233.15,1E+025,1900,1,0.0000028,0.0000028,0.00000005,0.00000005
35784370000,35.78437,1243.15,1E+025,1900,1,0.00000285,0.00000285,0.00000005,0.00000005
35831350000,35.83135,1253.15,1E+025,1900,1,0.0000029,0.0000029,0.00000005,0.00000005
35878320000,35.87832,1263.15,1E+025,1900,1,0.00000295,0.00000295,0.00000005,0.00000005
35925300000,35.9253,1273.15,1E+025,1900,1,0.000003,0.000003,0.00000005,0.00000005
35972280000,35.97228,1283.15,1E+025,1900,1,0.00000305,0.00000305,0.00000005,0.00000005
36019250000,36.01925,1293.15,1E+025,1900,1,0.0000031,0.0000031,0.00000005,0.00000005
36066220000,36.06622,1303.15,1E+025,1900,1,0.00000315,0.00000315,0.00000005,0.00000005
36113200000,36.1132,1313.15,1E+025,1900,1,0.0000032,0.0000032,0.00000005,0.00000005
36160200000,36.1602,1323.15,1E+025,1900,1,0.00000325,0.00000325,0.00000005,0.00000005
36207200000,36.2072,1333.15,1E+025,1900,1,0.0000033,0.0000033,0.00000005,0.00000005
36254170000,36.25417,1343.15,1E+025,1900,1,0.00000335,0.00000335,0.00000005,0.00000005
36301150000,36.30115,1353.15,1E+025,1900,1,0.0000034,0.0000034,0.00000005,0.00000005
36348120000,36.34812,1363.15,1E+025,1900,1,0.00000345,0.00000345,0.00000005,0.00000005
36395100000,36.3951,1373.15,1E+025,1900,1,0.0000035,0.0000035,0.00000005,0.00000005
36442100000,36.4421,1383.15,1E+025,1900,1,0.00000355,0.00000355,0.00000005,0.00000005
36489100000,36.4891,1393.15,1E+025,1900,1,0.0000036,0.0000036,0.00000005,0.00000005
36536070000,36.53607,1403.15,1E+025,1900,1,0.00000365,0.00000365,0.00000005,0.00000005
36583050000,36.58305,1413.15,1E+025,1900,1,0.0000037,0.0000037,0.00000005,0.00000005
36630020000,36.63002,1423.15,1E+025,1900,1,0.00000375,0.00000375,0.00000005,0.00000005
36677000000,36.677,1433.15,1E+025,1900,1,0.0000038,0.0000038,0.00000005,0.00000005
36724000000,36.724,1443.15,1E+025,1900,1,0.00000385,0.00000385,0.00000005,0.00000005
36771000000,36.771,1453.15,1E+025,1900,1,0.0000039,0.0000039,0.00000005,0.00000005
36817980000,36.81798,1463.15,1E+025,1900,1,0.00000395,0.00000395,0.00000005,0.00000005
36864950000,36.86495,1473.15,1E+025,1900,1,0.000004,0.000004,0.00000005,0.00000005
36911920000,36.91192,1483.15,1E+025,1900,1,0.00000405,0.00000405,0.00000005,0.00000005
36958900000,36.9589,1493.15,1E+025,1900,1,0.0000041,0.0000041,0.00000005,0.00000005
37005870000,37.00587,1503.15,1E+025,1900,1,0.00000415,0.00000415,0.00000005,0.00000005
37052850000,37.05285,1513.15,1E+025,1900,1,0.0000042,0.0000042,0.00000005,0.00000005
37099820000,37.09982,1523.15,1E+025,1900,1,0.00000425,0.00000425,0.00000005,0.00000005
37146800000,37.1468,1533.15,1E+025,1900,1,0.0000043,0.0000043,0.00000005,0.00000005
37193800000,37.1938,1543.15,1E+025,1900,1,0.00000435,0.00000435,0.00000005,0.00000005
37240800000,37.2408,1553.15,1E+025,1900,1,0.0000044,0.0000044,0.00000005,0.00000005
37287770000,37.28777,1563.15,1E+025,1900,1,0.00000445,0.00000445,0.00000005,0.00000005
37334750000,37.33475,1573.15,1E+025,1900,1,0.0000045,0.0000045,0.00000005,0.00000005
37381730000,37.38173,1583.15,1E+025,1900,1,0.00000455,0.00000455,0.00000005,0.00000005
37428700000,37.4287,1593.15,1E+025,1900,1,0.0000046,0.0000046,0.00000005,0.00000005
37475700000,37.4757,1603.15,1E+025,1900,1,0.00000465,0.00000465,0.00000005,0.00000005
37522700000,37.5227,1613.15,1E+025,1900,1,0.0000047,0.0000047,0.00000005,0.00000005
37569670000,37.56967,1623.15,1E+025,1900,1,0.00000475,0.00000475,0.00000005,0.00000005
37616650000,37.61665,1633.15,1E+025,1900,1,0.0000048,0.0000048,0.00000005,0.00000005
37663620000,37.66362,1643.15,1E+025,1900,1,0.00000485,0.00000485,0.00000005,0.00000005
37710600000,37.7106,1653.15,1E+025,1900,1,0.0000049,0.0000049,0.00000005,0.00000005
37734100000,37.7341,1663.15,1E+025,1900,1,0.00000495,0.00000495,0.00000005,0.00000005
37757600000,37.7576,1673.15,1E+025,1900,1,0.000005,0.000005,0.00000005,0.00000005
